<?xml version="1.0" encoding="utf-8"?>
<!-- Generator: Adobe Illustrator 23.0.1, SVG Export Plug-In . SVG Version: 6.00 Build 0)  -->
<svg version="1.1" id="Слой_1" xmlns="http://www.w3.org/2000/svg" xmlns:xlink="http://www.w3.org/1999/xlink" x="0px" y="0px"
	 viewBox="0 0 23 23" style="enable-background:new 0 0 23 23;" xml:space="preserve">
<style type="text/css">
	.st0{fill:#CC3333;}
</style>
<path class="st0" d="M21.6,2.1H9.3c-0.6,0-1-0.4-1-1s0.4-1,1-1h12.3c0.6,0,1,0.4,1,1S22.2,2.1,21.6,2.1z"/>
<path class="st0" d="M21.6,7.4H9.3c-0.6,0-1-0.4-1-1s0.4-1,1-1h12.3c0.6,0,1,0.4,1,1C22.6,6.9,22.2,7.4,21.6,7.4z"/>
<path class="st0" d="M21.6,12.6H1c-0.6,0-1-0.4-1-1s0.4-1,1-1h20.7c0.6,0,1,0.4,1,1C22.6,12.2,22.2,12.6,21.6,12.6
	C21.6,12.6,21.6,12.6,21.6,12.6z"/>
<path class="st0" d="M21.6,17.9H1c-0.6,0-1-0.4-1-1s0.4-1,1-1h20.7c0.6,0,1,0.4,1,1C22.6,17.4,22.2,17.9,21.6,17.9
	C21.6,17.9,21.6,17.9,21.6,17.9z"/>
<path class="st0" d="M21.6,23.1H1c-0.6,0-1-0.4-1-1s0.4-1,1-1h20.7c0.6,0,1,0.4,1,1C22.6,22.7,22.2,23.1,21.6,23.1
	C21.6,23.1,21.6,23.1,21.6,23.1z"/>
<path class="st0" d="M6.3,8.6C5.9,8.6,5.5,8.4,5.4,8L3.7,3.7L2,8C1.8,8.5,1.2,8.8,0.7,8.5C0.2,8.3-0.1,7.7,0.2,7.2l2.7-6.5
	c0-0.4,0.3-0.6,0.7-0.6s0.8,0.2,0.9,0.6l2.7,6.5c0.2,0.5,0,1.1-0.5,1.3C6.6,8.6,6.4,8.6,6.3,8.6z"/>
<path class="st0" d="M5.2,7.3H1.7c-0.6,0-1-0.4-1-1s0.4-1,1-1h3.5c0.6,0,1,0.4,1,1S5.8,7.3,5.2,7.3z"/>
</svg>
